…
Temperaturas
```

```
# A tibble: 20,223 x 3
   Date.Time           Temperatura ID    
   <dttm>                    <int> <chr> 
 1 2016-07-01 14:55:00          28 H1F102
 2 2016-07-01 15:55:00          24 H1F102
 3 2016-07-01 16:55:00          25 H1F102
 4 2016-07-01 17:55:00          25 H1F102
 5 2016-07-01 18:55:00          25 H1F102
 6 2016-07-01 19:55:00          25 H1F102
 7 2016-07-01 20:55:00          24 H1F102
 8 2016-07-01 21:55:00          24 H1F102
 9 2016-07-01 22:55:00          25 H1F102
10 2016-07-01 23:55:00          25 H1F102
# ... with 20,213 more rows
```
…
